[gd_resource type="Theme" load_steps=3 format=2]

[sub_resource type="DynamicFontData" id=1]

hinting = 2
font_path = "res://Roboto-Black.ttf"
_sections_unfolded = [ "Resource" ]

[sub_resource type="DynamicFont" id=2]

size = 50
use_mipmaps = true
use_filter = true
font_data = SubResource( 1 )
_sections_unfolded = [ "Extra Spacing", "Font", "Settings" ]

[resource]

default_font = SubResource( 2 )
_sections_unfolded = [ "Resource" ]

